blue7swap/dump.vcd
$date
   Tue Sep 18 14:31:00 2012
$end
$version
  P.28xd
$end
$timescale
  1ps
$end
$scope module main $end
$var reg 1 ! CLK $end
$var reg 1 " RST_N $end
$var reg 32 # cycle [31:0] $end
$var reg 1 $ do_vcd $end
$var reg 1 % do_fsdb $end
$var reg 1 & do_fst $end
$var reg 1 ' do_cycles $end
$scope module top $end
$var wire 1 V$ CLK $end
$var wire 1 W$ RST_N $end
$var wire 1 * genPacketFsm_start_wire$whas $end
$var wire 1 + genPacketFsm_state_set_pw$whas $end
$var wire 1 , ccounter$D_IN [15] $end
$var wire 1 - ccounter$D_IN [14] $end
$var wire 1 . ccounter$D_IN [13] $end
$var wire 1 / ccounter$D_IN [12] $end
$var wire 1 0 ccounter$D_IN [11] $end
$var wire 1 1 ccounter$D_IN [10] $end
$var wire 1 2 ccounter$D_IN [9] $end
$var wire 1 3 ccounter$D_IN [8] $end
$var wire 1 4 ccounter$D_IN [7] $end
$var wire 1 5 ccounter$D_IN [6] $end
$var wire 1 6 ccounter$D_IN [5] $end
$var wire 1 7 ccounter$D_IN [4] $end
$var wire 1 8 ccounter$D_IN [3] $end
$var wire 1 9 ccounter$D_IN [2] $end
$var wire 1 : ccounter$D_IN [1] $end
$var wire 1 ; ccounter$D_IN [0] $end
$var wire 1 < ccounter$EN $end
$var wire 1 = genPacketFsm_start_reg$D_IN $end
$var wire 1 > genPacketFsm_start_reg$EN $end
$var wire 1 ? genPacketFsm_start_reg_1$D_IN $end
$var wire 1 @ genPacketFsm_start_reg_1$EN $end
$var wire 1 A genPacketFsm_state_can_overlap$D_IN $end
$var wire 1 B genPacketFsm_state_can_overlap$EN $end
$var wire 1 C genPacketFsm_state_fired$D_IN $end
$var wire 1 D genPacketFsm_state_fired$EN $end
$var wire 1 E genPacketFsm_state_mkFSMstate$EN $end
$var wire 1 F startFSM$D_IN $end
$var wire 1 G startFSM$EN $end
$var wire 1 H tmp$D_IN $end
$var wire 1 I tmp$EN $end
$var wire 1 u" dut$in_put [9] $end
$var wire 1 v" dut$in_put [8] $end
$var wire 1 w" dut$in_put [7] $end
$var wire 1 x" dut$in_put [6] $end
$var wire 1 y" dut$in_put [5] $end
$var wire 1 z" dut$in_put [4] $end
$var wire 1 {" dut$in_put [3] $end
$var wire 1 |" dut$in_put [2] $end
$var wire 1 }" dut$in_put [1] $end
$var wire 1 ~" dut$in_put [0] $end
$var wire 1 $# dut$out_get [9] $end
$var wire 1 %# dut$out_get [8] $end
$var wire 1 &# dut$out_get [7] $end
$var wire 1 '# dut$out_get [6] $end
$var wire 1 (# dut$out_get [5] $end
$var wire 1 )# dut$out_get [4] $end
$var wire 1 *# dut$out_get [3] $end
$var wire 1 +# dut$out_get [2] $end
$var wire 1 ,# dut$out_get [1] $end
$var wire 1 -# dut$out_get [0] $end
$var wire 1 !# dut$EN_in_put $end
$var wire 1 ## dut$EN_out_get $end
$var wire 1 "# dut$RDY_in_put $end
$var wire 1 .# dut$RDY_out_get $end
$var wire 1 g$ genF$D_OUT [9] $end
$var wire 1 h$ genF$D_OUT [8] $end
$var wire 1 i$ genF$D_OUT [7] $end
$var wire 1 j$ genF$D_OUT [6] $end
$var wire 1 k$ genF$D_OUT [5] $end
$var wire 1 l$ genF$D_OUT [4] $end
$var wire 1 m$ genF$D_OUT [3] $end
$var wire 1 n$ genF$D_OUT [2] $end
$var wire 1 o$ genF$D_OUT [1] $end
$var wire 1 p$ genF$D_OUT [0] $end
$var wire 1 d$ genF$CLR $end
$var wire 1 c$ genF$DEQ $end
$var wire 1 f$ genF$EMPTY_N $end
$var wire 1 b$ genF$ENQ $end
$var wire 1 e$ genF$FULL_N $end
$var wire 1 q CAN_FIRE_RL_displayData $end
$var wire 1 r CAN_FIRE_RL_finish $end
$var wire 1 s CAN_FIRE_RL_genData $end
$var wire 1 t CAN_FIRE_RL_genPacketFsm_action_l23c8 $end
$var wire 1 u CAN_FIRE_RL_genPacketFsm_action_l24c8 $end
$var wire 1 v CAN_FIRE_RL_genPacketFsm_action_l25c8 $end
$var wire 1 w CAN_FIRE_RL_genPacketFsm_action_l26c8 $end
$var wire 1 x CAN_FIRE_RL_genPacketFsm_action_l27c8 $end
$var wire 1 y CAN_FIRE_RL_genPacketFsm_action_l28c8 $end
$var wire 1 z CAN_FIRE_RL_genPacketFsm_action_l30c8 $end
$var wire 1 { CAN_FIRE_RL_genPacketFsm_action_l31c8 $end
$var wire 1 | CAN_FIRE_RL_genPacketFsm_action_l32c8 $end
$var wire 1 } CAN_FIRE_RL_genPacketFsm_action_l33c8 $end
$var wire 1 ~ CAN_FIRE_RL_genPacketFsm_action_l34c8 $end
$var wire 1 !! CAN_FIRE_RL_genPacketFsm_action_l35c8 $end
$var wire 1 "! CAN_FIRE_RL_genPacketFsm_action_l37c8 $end
$var wire 1 #! CAN_FIRE_RL_genPacketFsm_action_l38c8 $end
$var wire 1 $! CAN_FIRE_RL_genPacketFsm_action_l39c8 $end
$var wire 1 %! CAN_FIRE_RL_genPacketFsm_action_l40c8 $end
$var wire 1 &! CAN_FIRE_RL_genPacketFsm_action_l42c8 $end
$var wire 1 '! CAN_FIRE_RL_genPacketFsm_action_l44c8 $end
$var wire 1 (! CAN_FIRE_RL_genPacketFsm_action_l45c8 $end
$var wire 1 )! CAN_FIRE_RL_genPacketFsm_action_l48c8 $end
$var wire 1 *! CAN_FIRE_RL_genPacketFsm_action_l49c8 $end
$var wire 1 +! CAN_FIRE_RL_genPacketFsm_action_l50c8 $end
$var wire 1 ,! CAN_FIRE_RL_genPacketFsm_action_l51c8 $end
$var wire 1 -! CAN_FIRE_RL_genPacketFsm_action_l56c8 $end
$var wire 1 .! CAN_FIRE_RL_genPacketFsm_action_l57c8 $end
$var wire 1 /! CAN_FIRE_RL_genPacketFsm_action_l58c8 $end
$var wire 1 0! CAN_FIRE_RL_genPacketFsm_action_l59c8 $end
$var wire 1 1! CAN_FIRE_RL_genPacketFsm_action_l60c8 $end
$var wire 1 2! CAN_FIRE_RL_genPacketFsm_action_l61c8 $end
$var wire 1 3! CAN_FIRE_RL_genPacketFsm_action_l63c8 $end
$var wire 1 4! CAN_FIRE_RL_genPacketFsm_action_l64c8 $end
$var wire 1 5! CAN_FIRE_RL_genPacketFsm_action_l65c8 $end
$var wire 1 6! CAN_FIRE_RL_genPacketFsm_action_l66c8 $end
$var wire 1 7! CAN_FIRE_RL_genPacketFsm_action_l67c8 $end
$var wire 1 8! CAN_FIRE_RL_genPacketFsm_action_l68c8 $end
$var wire 1 9! CAN_FIRE_RL_genPacketFsm_action_l70c8 $end
$var wire 1 :! CAN_FIRE_RL_genPacketFsm_action_l71c8 $end
$var wire 1 ;! CAN_FIRE_RL_genPacketFsm_action_l72c8 $end
$var wire 1 <! CAN_FIRE_RL_genPacketFsm_action_l73c8 $end
$var wire 1 =! CAN_FIRE_RL_genPacketFsm_fsm_start $end
$var wire 1 >! CAN_FIRE_RL_genPacketFsm_idle_l22c18 $end
$var wire 1 ?! CAN_FIRE_RL_genPacketFsm_restart $end
$var wire 1 @! CAN_FIRE_RL_genPacketFsm_start_reg_1__dreg_update $end
$var wire 1 A! CAN_FIRE_RL_genPacketFsm_state_every $end
$var wire 1 B! CAN_FIRE_RL_genPacketFsm_state_fired__dreg_update $end
$var wire 1 C! CAN_FIRE_RL_genPacketFsm_state_handle_abort $end
$var wire 1 D! CAN_FIRE_RL_increment $end
$var wire 1 E! CAN_FIRE_RL_mkConnectionGetPut $end
$var wire 1 F! CAN_FIRE___me_check_10 $end
$var wire 1 G! CAN_FIRE___me_check_11 $end
$var wire 1 H! CAN_FIRE___me_check_12 $end
$var wire 1 I! CAN_FIRE___me_check_13 $end
$var wire 1 J! CAN_FIRE___me_check_14 $end
$var wire 1 K! CAN_FIRE___me_check_15 $end
$var wire 1 L! CAN_FIRE___me_check_16 $end
$var wire 1 M! CAN_FIRE___me_check_17 $end
$var wire 1 N! CAN_FIRE___me_check_18 $end
$var wire 1 O! CAN_FIRE___me_check_19 $end
$var wire 1 P! CAN_FIRE___me_check_20 $end
$var wire 1 Q! CAN_FIRE___me_check_21 $end
$var wire 1 R! CAN_FIRE___me_check_22 $end
$var wire 1 S! CAN_FIRE___me_check_23 $end
$var wire 1 T! CAN_FIRE___me_check_24 $end
$var wire 1 U! CAN_FIRE___me_check_25 $end
$var wire 1 V! CAN_FIRE___me_check_26 $end
$var wire 1 W! CAN_FIRE___me_check_27 $end
$var wire 1 X! CAN_FIRE___me_check_28 $end
$var wire 1 Y! CAN_FIRE___me_check_29 $end
$var wire 1 Z! CAN_FIRE___me_check_30 $end
$var wire 1 [! CAN_FIRE___me_check_31 $end
$var wire 1 \! CAN_FIRE___me_check_32 $end
$var wire 1 ]! CAN_FIRE___me_check_33 $end
$var wire 1 ^! CAN_FIRE___me_check_34 $end
$var wire 1 _! CAN_FIRE___me_check_35 $end
$var wire 1 `! CAN_FIRE___me_check_36 $end
$var wire 1 a! CAN_FIRE___me_check_37 $end
$var wire 1 b! CAN_FIRE___me_check_38 $end
$var wire 1 c! CAN_FIRE___me_check_39 $end
$var wire 1 d! CAN_FIRE___me_check_40 $end
$var wire 1 e! CAN_FIRE___me_check_41 $end
$var wire 1 f! CAN_FIRE___me_check_42 $end
$var wire 1 g! CAN_FIRE___me_check_43 $end
$var wire 1 h! CAN_FIRE___me_check_6 $end
$var wire 1 i! CAN_FIRE___me_check_7 $end
$var wire 1 j! CAN_FIRE___me_check_8 $end
$var wire 1 k! CAN_FIRE___me_check_9 $end
$var wire 1 l! WILL_FIRE_RL_displayData $end
$var wire 1 m! WILL_FIRE_RL_finish $end
$var wire 1 n! WILL_FIRE_RL_genData $end
$var wire 1 o! WILL_FIRE_RL_genPacketFsm_action_l23c8 $end
$var wire 1 p! WILL_FIRE_RL_genPacketFsm_action_l24c8 $end
$var wire 1 q! WILL_FIRE_RL_genPacketFsm_action_l25c8 $end
$var wire 1 r! WILL_FIRE_RL_genPacketFsm_action_l26c8 $end
$var wire 1 s! WILL_FIRE_RL_genPacketFsm_action_l27c8 $end
$var wire 1 t! WILL_FIRE_RL_genPacketFsm_action_l28c8 $end
$var wire 1 u! WILL_FIRE_RL_genPacketFsm_action_l30c8 $end
$var wire 1 v! WILL_FIRE_RL_genPacketFsm_action_l31c8 $end
$var wire 1 w! WILL_FIRE_RL_genPacketFsm_action_l32c8 $end
$var wire 1 x! WILL_FIRE_RL_genPacketFsm_action_l33c8 $end
$var wire 1 y! WILL_FIRE_RL_genPacketFsm_action_l34c8 $end
$var wire 1 z! WILL_FIRE_RL_genPacketFsm_action_l35c8 $end
$var wire 1 {! WILL_FIRE_RL_genPacketFsm_action_l37c8 $end
$var wire 1 |! WILL_FIRE_RL_genPacketFsm_action_l38c8 $end
$var wire 1 }! WILL_FIRE_RL_genPacketFsm_action_l39c8 $end
$var wire 1 ~! WILL_FIRE_RL_genPacketFsm_action_l40c8 $end
$var wire 1 !" WILL_FIRE_RL_genPacketFsm_action_l42c8 $end
$var wire 1 "" WILL_FIRE_RL_genPacketFsm_action_l44c8 $end
$var wire 1 #" WILL_FIRE_RL_genPacketFsm_action_l45c8 $end
$var wire 1 $" WILL_FIRE_RL_genPacketFsm_action_l48c8 $end
$var wire 1 %" WILL_FIRE_RL_genPacketFsm_action_l49c8 $end
$var wire 1 &" WILL_FIRE_RL_genPacketFsm_action_l50c8 $end
$var wire 1 '" WILL_FIRE_RL_genPacketFsm_action_l51c8 $end
$var wire 1 (" WILL_FIRE_RL_genPacketFsm_action_l56c8 $end
$var wire 1 )" WILL_FIRE_RL_genPacketFsm_action_l57c8 $end
$var wire 1 *" WILL_FIRE_RL_genPacketFsm_action_l58c8 $end
$var wire 1 +" WILL_FIRE_RL_genPacketFsm_action_l59c8 $end
$var wire 1 ," WILL_FIRE_RL_genPacketFsm_action_l60c8 $end
$var wire 1 -" WILL_FIRE_RL_genPacketFsm_action_l61c8 $end
$var wire 1 ." WILL_FIRE_RL_genPacketFsm_action_l63c8 $end
$var wire 1 /" WILL_FIRE_RL_genPacketFsm_action_l64c8 $end
$var wire 1 0" WILL_FIRE_RL_genPacketFsm_action_l65c8 $end
$var wire 1 1" WILL_FIRE_RL_genPacketFsm_action_l66c8 $end
$var wire 1 2" WILL_FIRE_RL_genPacketFsm_action_l67c8 $end
$var wire 1 3" WILL_FIRE_RL_genPacketFsm_action_l68c8 $end
$var wire 1 4" WILL_FIRE_RL_genPacketFsm_action_l70c8 $end
$var wire 1 5" WILL_FIRE_RL_genPacketFsm_action_l71c8 $end
$var wire 1 6" WILL_FIRE_RL_genPacketFsm_action_l72c8 $end
$var wire 1 7" WILL_FIRE_RL_genPacketFsm_action_l73c8 $end
$var wire 1 8" WILL_FIRE_RL_genPacketFsm_fsm_start $end
$var wire 1 9" WILL_FIRE_RL_genPacketFsm_idle_l22c18 $end
$var wire 1 :" WILL_FIRE_RL_genPacketFsm_restart $end
$var wire 1 ;" WILL_FIRE_RL_genPacketFsm_start_reg_1__dreg_update $end
$var wire 1 <" WILL_FIRE_RL_genPacketFsm_state_every $end
$var wire 1 =" WILL_FIRE_RL_genPacketFsm_state_fired__dreg_update $end
$var wire 1 >" WILL_FIRE_RL_genPacketFsm_state_handle_abort $end
$var wire 1 ?" WILL_FIRE_RL_increment $end
$var wire 1 @" WILL_FIRE_RL_mkConnectionGetPut $end
$var wire 1 A" WILL_FIRE___me_check_10 $end
$var wire 1 B" WILL_FIRE___me_check_11 $end
$var wire 1 C" WILL_FIRE___me_check_12 $end
$var wire 1 D" WILL_FIRE___me_check_13 $end
$var wire 1 E" WILL_FIRE___me_check_14 $end
$var wire 1 F" WILL_FIRE___me_check_15 $end
$var wire 1 G" WILL_FIRE___me_check_16 $end
$var wire 1 H" WILL_FIRE___me_check_17 $end
$var wire 1 I" WILL_FIRE___me_check_18 $end
$var wire 1 J" WILL_FIRE___me_check_19 $end
$var wire 1 K" WILL_FIRE___me_check_20 $end
$var wire 1 L" WILL_FIRE___me_check_21 $end
$var wire 1 M" WILL_FIRE___me_check_22 $end
$var wire 1 N" WILL_FIRE___me_check_23 $end
$var wire 1 O" WILL_FIRE___me_check_24 $end
$var wire 1 P" WILL_FIRE___me_check_25 $end
$var wire 1 Q" WILL_FIRE___me_check_26 $end
$var wire 1 R" WILL_FIRE___me_check_27 $end
$var wire 1 S" WILL_FIRE___me_check_28 $end
$var wire 1 T" WILL_FIRE___me_check_29 $end
$var wire 1 U" WILL_FIRE___me_check_30 $end
$var wire 1 V" WILL_FIRE___me_check_31 $end
$var wire 1 W" WILL_FIRE___me_check_32 $end
$var wire 1 X" WILL_FIRE___me_check_33 $end
$var wire 1 Y" WILL_FIRE___me_check_34 $end
$var wire 1 Z" WILL_FIRE___me_check_35 $end
$var wire 1 [" WILL_FIRE___me_check_36 $end
$var wire 1 \" WILL_FIRE___me_check_37 $end
$var wire 1 ]" WILL_FIRE___me_check_38 $end
$var wire 1 ^" WILL_FIRE___me_check_39 $end
$var wire 1 _" WILL_FIRE___me_check_40 $end
$var wire 1 `" WILL_FIRE___me_check_41 $end
$var wire 1 a" WILL_FIRE___me_check_42 $end
$var wire 1 b" WILL_FIRE___me_check_43 $end
$var wire 1 c" WILL_FIRE___me_check_6 $end
$var wire 1 d" WILL_FIRE___me_check_7 $end
$var wire 1 e" WILL_FIRE___me_check_8 $end
$var wire 1 f" WILL_FIRE___me_check_9 $end
$var wire 1 g" genPacketFsm_abort_whas_AND_genPacketFsm_abort_ETC___d152 $end
$var reg 16 h" ccounter [15:0] $end
$var reg 1 i" genPacketFsm_start_reg $end
$var reg 1 j" genPacketFsm_start_reg_1 $end
$var reg 1 k" genPacketFsm_state_can_overlap $end
$var reg 1 l" genPacketFsm_state_fired $end
$var reg 6 m" genPacketFsm_state_mkFSMstate [5:0] $end
$var reg 6 n" genPacketFsm_state_mkFSMstate$D_IN [5:0] $end
$var reg 1 o" startFSM $end
$var reg 1 p" tmp $end
$var reg 10 q" genF$D_IN [9:0] $end
$var reg 2 r" CASE_genFD_OUT_BITS_9_TO_8_3_0_genFD_OUT_BIT_ETC__q1 [1:0] $end
$scope module dut $end
$var wire 1 V$ CLK $end
$var wire 1 W$ RST_N $end
$var wire 1 u" in_put [9] $end
$var wire 1 v" in_put [8] $end
$var wire 1 w" in_put [7] $end
$var wire 1 x" in_put [6] $end
$var wire 1 y" in_put [5] $end
$var wire 1 z" in_put [4] $end
$var wire 1 {" in_put [3] $end
$var wire 1 |" in_put [2] $end
$var wire 1 }" in_put [1] $end
$var wire 1 ~" in_put [0] $end
$var wire 1 !# EN_in_put $end
$var wire 1 "# RDY_in_put $end
$var wire 1 ## EN_out_get $end
$var wire 1 $# out_get [9] $end
$var wire 1 %# out_get [8] $end
$var wire 1 &# out_get [7] $end
$var wire 1 '# out_get [6] $end
$var wire 1 (# out_get [5] $end
$var wire 1 )# out_get [4] $end
$var wire 1 *# out_get [3] $end
$var wire 1 +# out_get [2] $end
$var wire 1 ,# out_get [1] $end
$var wire 1 -# out_get [0] $end
$var wire 1 .# RDY_out_get $end
$var wire 1 l# inF$D_IN [9] $end
$var wire 1 m# inF$D_IN [8] $end
$var wire 1 n# inF$D_IN [7] $end
$var wire 1 o# inF$D_IN [6] $end
$var wire 1 p# inF$D_IN [5] $end
$var wire 1 q# inF$D_IN [4] $end
$var wire 1 r# inF$D_IN [3] $end
$var wire 1 s# inF$D_IN [2] $end
$var wire 1 t# inF$D_IN [1] $end
$var wire 1 u# inF$D_IN [0] $end
$var wire 1 {# inF$D_OUT [9] $end
$var wire 1 |# inF$D_OUT [8] $end
$var wire 1 }# inF$D_OUT [7] $end
$var wire 1 ~# inF$D_OUT [6] $end
$var wire 1 !$ inF$D_OUT [5] $end
$var wire 1 "$ inF$D_OUT [4] $end
$var wire 1 #$ inF$D_OUT [3] $end
$var wire 1 $$ inF$D_OUT [2] $end
$var wire 1 %$ inF$D_OUT [1] $end
$var wire 1 &$ inF$D_OUT [0] $end
$var wire 1 x# inF$CLR $end
$var wire 1 w# inF$DEQ $end
$var wire 1 z# inF$EMPTY_N $end
$var wire 1 v# inF$ENQ $end
$var wire 1 y# inF$FULL_N $end
$var wire 1 3$ outF$D_IN [9] $end
$var wire 1 4$ outF$D_IN [8] $end
$var wire 1 5$ outF$D_IN [7] $end
$var wire 1 6$ outF$D_IN [6] $end
$var wire 1 7$ outF$D_IN [5] $end
$var wire 1 8$ outF$D_IN [4] $end
$var wire 1 9$ outF$D_IN [3] $end
$var wire 1 :$ outF$D_IN [2] $end
$var wire 1 ;$ outF$D_IN [1] $end
$var wire 1 <$ outF$D_IN [0] $end
$var wire 1 B$ outF$D_OUT [9] $end
$var wire 1 C$ outF$D_OUT [8] $end
$var wire 1 D$ outF$D_OUT [7] $end
$var wire 1 E$ outF$D_OUT [6] $end
$var wire 1 F$ outF$D_OUT [5] $end
$var wire 1 G$ outF$D_OUT [4] $end
$var wire 1 H$ outF$D_OUT [3] $end
$var wire 1 I$ outF$D_OUT [2] $end
$var wire 1 J$ outF$D_OUT [1] $end
$var wire 1 K$ outF$D_OUT [0] $end
$var wire 1 ?$ outF$CLR $end
$var wire 1 >$ outF$DEQ $end
$var wire 1 A$ outF$EMPTY_N $end
$var wire 1 =$ outF$ENQ $end
$var wire 1 @$ outF$FULL_N $end
$var wire 1 a# CAN_FIRE_RL_advance $end
$var wire 1 b# CAN_FIRE_in_put $end
$var wire 1 c# CAN_FIRE_out_get $end
$var wire 1 d# WILL_FIRE_RL_advance $end
$var wire 1 e# WILL_FIRE_in_put $end
$var wire 1 f# WILL_FIRE_out_get $end
$var reg 2 g# CASE_inFD_OUT_BITS_9_TO_8_3_0_inFD_OUT_BITS__ETC__q3 [1:0] $end
$var reg 2 h# CASE_in_put_BITS_9_TO_8_3_0_in_put_BITS_9_TO_8_ETC__q2 [1:0] $end
$var reg 2 i# CASE_outFD_OUT_BITS_9_TO_8_3_0_outFD_OUT_BIT_ETC__q1 [1:0] $end
$scope module inF $end
$var wire 1 V$ CLK $end
$var wire 1 W$ RST_N $end
$var wire 1 l# D_IN [9] $end
$var wire 1 m# D_IN [8] $end
$var wire 1 n# D_IN [7] $end
$var wire 1 o# D_IN [6] $end
$var wire 1 p# D_IN [5] $end
$var wire 1 q# D_IN [4] $end
$var wire 1 r# D_IN [3] $end
$var wire 1 s# D_IN [2] $end
$var wire 1 t# D_IN [1] $end
$var wire 1 u# D_IN [0] $end
$var wire 1 v# ENQ $end
$var wire 1 w# DEQ $end
$var wire 1 x# CLR $end
$var wire 1 y# FULL_N $end
$var wire 1 z# EMPTY_N $end
$var wire 1 {# D_OUT [9] $end
$var wire 1 |# D_OUT [8] $end
$var wire 1 }# D_OUT [7] $end
$var wire 1 ~# D_OUT [6] $end
$var wire 1 !$ D_OUT [5] $end
$var wire 1 "$ D_OUT [4] $end
$var wire 1 #$ D_OUT [3] $end
$var wire 1 $$ D_OUT [2] $end
$var wire 1 %$ D_OUT [1] $end
$var wire 1 &$ D_OUT [0] $end
$var wire 1 '$ d0di $end
$var wire 1 ($ d0d1 $end
$var wire 1 )$ d0h $end
$var wire 1 *$ d1di $end
$var reg 1 +$ full_reg $end
$var reg 1 ,$ empty_reg $end
$var reg 10 -$ data0_reg [9:0] $end
$var reg 10 .$ data1_reg [9:0] $end
$scope begin error_checks $end
$var reg 1 /$ deqerror $end
$var reg 1 0$ enqerror $end
$upscope $end
$upscope $end
$scope module outF $end
$var wire 1 V$ CLK $end
$var wire 1 W$ RST_N $end
$var wire 1 3$ D_IN [9] $end
$var wire 1 4$ D_IN [8] $end
$var wire 1 5$ D_IN [7] $end
$var wire 1 6$ D_IN [6] $end
$var wire 1 7$ D_IN [5] $end
$var wire 1 8$ D_IN [4] $end
$var wire 1 9$ D_IN [3] $end
$var wire 1 :$ D_IN [2] $end
$var wire 1 ;$ D_IN [1] $end
$var wire 1 <$ D_IN [0] $end
$var wire 1 =$ ENQ $end
$var wire 1 >$ DEQ $end
$var wire 1 ?$ CLR $end
$var wire 1 @$ FULL_N $end
$var wire 1 A$ EMPTY_N $end
$var wire 1 B$ D_OUT [9] $end
$var wire 1 C$ D_OUT [8] $end
$var wire 1 D$ D_OUT [7] $end
$var wire 1 E$ D_OUT [6] $end
$var wire 1 F$ D_OUT [5] $end
$var wire 1 G$ D_OUT [4] $end
$var wire 1 H$ D_OUT [3] $end
$var wire 1 I$ D_OUT [2] $end
$var wire 1 J$ D_OUT [1] $end
$var wire 1 K$ D_OUT [0] $end
$var wire 1 L$ d0di $end
$var wire 1 M$ d0d1 $end
$var wire 1 N$ d0h $end
$var wire 1 O$ d1di $end
$var reg 1 P$ full_reg $end
$var reg 1 Q$ empty_reg $end
$var reg 10 R$ data0_reg [9:0] $end
$var reg 10 S$ data1_reg [9:0] $end
$scope begin error_checks $end
$var reg 1 T$ deqerror $end
$var reg 1 U$ enqerror $end
$upscope $end
$upscope $end
$upscope $end
$scope module genF $end
$var wire 1 V$ CLK $end
$var wire 1 W$ RST_N $end
$var wire 1 X$ D_IN [9] $end
$var wire 1 Y$ D_IN [8] $end
$var wire 1 Z$ D_IN [7] $end
$var wire 1 [$ D_IN [6] $end
$var wire 1 \$ D_IN [5] $end
$var wire 1 ]$ D_IN [4] $end
$var wire 1 ^$ D_IN [3] $end
$var wire 1 _$ D_IN [2] $end
$var wire 1 `$ D_IN [1] $end
$var wire 1 a$ D_IN [0] $end
$var wire 1 b$ ENQ $end
$var wire 1 c$ DEQ $end
$var wire 1 d$ CLR $end
$var wire 1 e$ FULL_N $end
$var wire 1 f$ EMPTY_N $end
$var wire 1 g$ D_OUT [9] $end
$var wire 1 h$ D_OUT [8] $end
$var wire 1 i$ D_OUT [7] $end
$var wire 1 j$ D_OUT [6] $end
$var wire 1 k$ D_OUT [5] $end
$var wire 1 l$ D_OUT [4] $end
$var wire 1 m$ D_OUT [3] $end
$var wire 1 n$ D_OUT [2] $end
$var wire 1 o$ D_OUT [1] $end
$var wire 1 p$ D_OUT [0] $end
$var wire 1 q$ d0di $end
$var wire 1 r$ d0d1 $end
$var wire 1 s$ d0h $end
$var wire 1 t$ d1di $end
$var reg 1 u$ full_reg $end
$var reg 1 v$ empty_reg $end
$var reg 10 w$ data0_reg [9:0] $end
$var reg 10 x$ data1_reg [9:0] $end
$scope begin error_checks $end
$var reg 1 y$ deqerror $end
$var reg 1 z$ enqerror $end
$upscope $end
$upscope $end
$upscope $end
$upscope $end
$enddefinitions $end
#0
$dumpvars
0W$
1`$
0_$
1^$
xV$
0a$
0]$
1\$
0[$
1Z$
0Y$
1X$
x!
0"
b0 #
1$
0%
0&
0'
b1010101010101010 h"
0i"
0j"
0k"
0l"
b101010 m"
b101010 n"
0o"
0p"
b1010101010 q"
b10 r"
0+
0*
1;
1:
09
18
07
16
05
14
03
12
01
10
0/
1.
0-
1,
1<
1=
0!#
0>
0?
1@
0A
1B
0C
1D
0E
0F
0G
0H
0I
0~"
1}"
0|"
1{"
0z"
1y"
0x"
1w"
0v"
1u"
0(!
0-#
1,#
0+#
1*#
0)#
1(#
0'#
1&#
0%#
1$#
1@!
0*!
0##
1"#
0.#
0p$
1o$
0n$
1m$
0l$
1k$
0j$
1i$
0h$
1g$
0d$
0c$
0f$
0b$
1e$
0q
0r
05!
0s
0t
0u
0v
0w
0x
0y
0z
0{
0|
0}
0~
0!!
0"!
0#!
0$!
0%!
0&!
0'!
1h!
0)!
1j!
0+!
0,!
0-!
0.!
0/!
00!
01!
02!
03!
04!
0u!
06!
07!
08!
09!
0:!
0;!
0<!
0=!
0>!
0?!
1b"
1c"
1d"
1A!
1B!
0C!
1D!
0E!
1F!
1G!
1H!
1I!
1J!
1K!
1L!
1M!
1N!
1O!
1P!
1Q!
1R!
1S!
1T!
1U!
1V!
1W!
1X!
1Y!
1Z!
1[!
1\!
1]!
1^!
1_!
1`!
1a!
1b!
1c!
1d!
1e!
1f!
1g!
1i!
1k!
0l!
0m!
0n!
0o!
0p!
0q!
0r!
0s!
0t!
0v!
0w!
0x!
0y!
0z!
0{!
0|!
0}!
0~!
0!"
0""
0#"
0$"
0%"
0&"
0'"
0("
0)"
0*"
0+"
0,"
0-"
0."
0/"
00"
01"
02"
03"
04"
05"
06"
07"
08"
09"
0:"
1;"
1<"
1="
0>"
1?"
0@"
1A"
1B"
1C"
1D"
1E"
1F"
1G"
1H"
1I"
1J"
1K"
1L"
1M"
1N"
1O"
1P"
1Q"
1R"
1S"
1T"
1U"
1V"
1W"
1X"
1Y"
1Z"
1["
1\"
1]"
1^"
1_"
1`"
1a"
1e"
1f"
0g"
b10 g#
b10 h#
b10 i#
0u#
1t#
0s#
1r#
0q#
1p#
0o#
1n#
0m#
1l#
0&$
1%$
0$$
1#$
0"$
1!$
0~#
1}#
0|#
1{#
0x#
0w#
0z#
0v#
1y#
0<$
1;$
0:$
19$
08$
17$
06$
15$
04$
13$
0K$
1J$
0I$
1H$
0G$
1F$
0E$
1D$
0C$
1B$
0?$
0>$
0A$
0=$
1@$
0a#
1b#
0c#
0d#
0e#
0f#
1+$
0,$
b1010101010 -$
b1010101010 .$
x/$
x0$
0'$
0($
1)$
0*$
1P$
0Q$
b1010101010 R$
b1010101010 S$
xT$
xU$
0L$
0M$
1N$
0O$
1u$
0v$
b1010101010 w$
b1010101010 x$
xy$
xz$
0q$
0r$
1s$
0t$
$end
#1000
1V$
1!
b1 #
b0 h"
1k"
b0 m"
1o"
0:
08
06
04
02
00
0.
0,
1>
1A
1G
1s
1n!
1g"
0/$
00$
0T$
0U$
0y$
0z$
#2000
1W$
1"
#5000
0V$
0!
#10000
0`$
0^$
1V$
0\$
0Z$
0X$
1!
b1 h"
1i"
b1 n"
0o"
b0 q"
1+
1*
0;
1:
0=
1?
1C
1E
0G
1b$
0s
1t
1=!
0n!
1o!
18"
1q$
0s$
#11000
b10 #
#15000
0V$
0!
#20000
1V$
1a$
1!
b10 h"
0i"
1j"
1l"
b1 m"
b10 n"
b1 q"
b0 r"
0*
1;
1=
1!#
0>
0?
0}"
0{"
0y"
0w"
0u"
0o$
0m$
0k$
0i$
0g$
1c$
1f$
0t
1u
0=!
1E!
0o!
1p!
08"
1@"
0g"
b0 h#
0t#
0r#
0p#
0n#
0l#
1v#
1e#
1'$
0)$
1v$
b0 w$
1q$
0s$
1t$
#21000
b11 #
#25000
0V$
0!
#30000
1`$
1V$
0a$
1!
b11 h"
0j"
b10 m"
b11 n"
b10 q"
0;
0:
19
1~"
1p$
0u
1v
0p!
1q!
b0 g#
1u#
0%$
0#$
0!$
0}#
0{#
1w#
1z#
0;$
09$
07$
05$
03$
1=$
1a#
1d#
1,$
b0 -$
1'$
0)$
1*$
1L$
0N$
b1 w$
b1 x$
#31000
b100 #
#35000
0V$
0!
#40000
1V$
1a$
1!
b100 h"
b11 m"
b100 n"
b11 q"
1;
0~"
1}"
0,#
0*#
0(#
0&#
0$#
1##
1.#
0p$
1o$
1q
0v
1w
1l!
0q!
1r!
b0 i#
0u#
1t#
1&$
1<$
0J$
0H$
0F$
0D$
0B$
1>$
1A$
1c#
1f#
b1 -$
b1 .$
1Q$
b0 R$
1L$
0N$
1O$
b10 w$
b10 x$
#41000
b101 #
#45000
0V$
0!
#50000
0`$
1_$
1V$
0a$
1!
b101 h"
b100 m"
b101 n"
b100 q"
0;
1:
1~"
1-#
1p$
0w
1x
0r!
1s!
1u#
0&$
1%$
0<$
1;$
1K$
b10 -$
b10 .$
b1 R$
b1 S$
b11 w$
b11 x$
#51000
b110 #
#55000
0V$
0!
